<svg width="24" height="24" viewBox="0 0 24 24" xmlns="http://www.w3.org/2000/svg">
    <g fill="none" fill-rule="evenodd">
        <path d="M0 0h24v24H0z"/>
        <path d="m12.613 15.792.094-.083 6-6a1 1 0 0 0-1.32-1.498l-.094.084L12 13.587 6.707 8.295a1 1 0 0 0-1.497 1.32l.083.094 6 6c.18.18.412.277.648.291h.118a.996.996 0 0 0 .554-.208z" fill="#FFFFFF"/>
    </g>
</svg>
