<svg width="16" height="16" viewBox="0 0 16 16" xmlns="http://www.w3.org/2000/svg">
    <g fill="none" fill-rule="evenodd">
        <path d="M0 0h16v16H0z"/>
        <path d="M8.202 10.637a.677.677 0 0 0 .207-.109l.062-.055 4-4a.667.667 0 0 0-.88-.999l-.062.056L8 9.059l-3.529-3.53a.667.667 0 0 0-.998.88l.056.064 4 4a.666.666 0 0 0 .471.195h.013a.67.67 0 0 0 .105-.01l.084-.021z" fill="#110F28"/>
    </g>
</svg>
