<svg width="24" height="24" viewBox="0 0 24 24" xmlns="http://www.w3.org/2000/svg">
    <g fill="none" fill-rule="evenodd">
        <path d="M0 0h24v24H0z"/>
        <path d="M21 11.5a1 1 0 0 1 .117 1.993L21 13.5H3a1 1 0 0 1-.117-1.993L3 11.5h18zm0-6a1 1 0 0 1 .117 1.993L21 7.5H3a1 1 0 0 1-.117-1.993L3 5.5h18zm0 12a1 1 0 0 1 .117 1.993L21 19.5H3a1 1 0 0 1-.117-1.993L3 17.5h18z" fill="#FFF"/>
    </g>
</svg>
