<svg width="24" height="24" viewBox="0 0 24 24" xmlns="http://www.w3.org/2000/svg">
    <g fill="none" fill-rule="evenodd">
        <path d="M0 0h24v24H0z"/>
        <path d="M12 1c6.075 0 11 4.925 11 11s-4.925 11-11 11S1 18.075 1 12 5.925 1 12 1zm0 2a9 9 0 1 0 0 18 9 9 0 0 0 0-18zm.01 12a1 1 0 0 1 .117 1.993L12 17a1 1 0 0 1-.117-1.993L12.01 15zM12 7a1 1 0 0 1 .993.883L13 8v4a1 1 0 0 1-1.993.117L11 12V8a1 1 0 0 1 1-1z" fill="#B38000"/>
    </g>
</svg>
