<svg width="48" height="48" viewBox="0 0 48 48" xmlns="http://www.w3.org/2000/svg">
    <defs>
        <radialGradient cx="0%" cy="0%" fx="0%" fy="0%" r="141.421%" id="f4bigpx53a">
            <stop stop-color="#FF8C00" offset="0%"/>
            <stop stop-color="#FF6200" offset="99.951%"/>
        </radialGradient>
    </defs>
    <g fill-rule="nonzero" fill="none">
        <path d="M47.277 29.806C44.07 42.663 31.049 50.488 18.19 47.28 5.337 44.076-2.488 31.053.72 18.197 3.923 5.338 16.945-2.487 29.799.718c12.859 3.206 20.683 16.23 17.477 29.088z" fill="#1B0AAE"/>
        <path d="M27.6 20.4h7.2v14.4a7.2 7.2 0 0 1-7.2-7.2v-7.2zm-7.2 0v-7.2h14.4v7.2H20.4zm-7.2-7.2h7.2v7.2a7.2 7.2 0 0 1-7.2-7.2zm0 14.4h7.2v7.2a7.2 7.2 0 0 1-7.2-7.2z" fill="url(#f4bigpx53a)"/>
    </g>
</svg>
